^C:\USERS\KISL3\SOURCE\REPOS\HOMEWORK_14\DEBUG\HOMEWORK_14.OBJ
C:\USERS\KISL3\SOURCE\REPOS\HOMEWORK_14\DEBUG\HOMEWORK_14.EXE
C:\USERS\KISL3\SOURCE\REPOS\HOMEWORK_14\DEBUG\HOMEWORK_14.ILK
C:\USERS\KISL3\SOURCE\REPOS\HOMEWORK_14\DEBUG\HOMEWORK_14.PDB
